website - SDS 192 Project 3
…
# Apply the custom function to calculate store proportions
total_stores <- nrow(chipotle_stores)  # Total number of stores in the dataset
chipotle_stores_prop <- calculate_proportion(chipotle_stores, total_stores)

# Print the resulting data frame to check the results
print(chipotle_stores_prop)

# A tibble: 48 × 3
   state       total_stores_per_state proportion_each_state
   <chr>                        <int>                 <dbl>
 1 Alabama                         15                 0.571
 2 Arizona                         85                 3.23 
 3 Arkansas                         6                 0.228
 4 California                     421                16.0  
 5 Colorado                        79                 3.00 
 6 Connecticut                     24                 0.913
 7 Delaware                         9                 0.342
 8 Florida                        177                 6.73 
 9 Georgia                         61                 2.32 
10 Idaho                            4                 0.152
# ℹ 38 more rows
…
